﻿
DisplayName "Lily's Mansion Laboratory"



EVENT   1
 PAGE   1
  250(bytes(0x04,0x08,0x6f,0x3a,0x0c,0x52,0x50,0x47,0x3a,0x3a,0x53,0x45,0x08,0x3a,0x0a,0x40,0x6e,0x61,0x6d,0x65,0x49,0x22,0x09,0x4d,0x6f,0x76,0x65,0x06,0x3a,0x06,0x45,0x54,0x3a,0x0b,0x40,0x70,0x69,0x74,0x63,0x68,0x69,0x69,0x3a,0x0c,0x40,0x76,0x6f,0x6c,0x75,0x6d,0x65,0x69,0x55))
  TeleportPlayer(0,361,48,12,4,0)
  0()



EVENT   4
 PAGE   1
  108("明かり設定10320300")
  0()



EVENT   5
 PAGE   1
  108("明かり設定1500200")
  0()



EVENT   6
 PAGE   1
  108("明かり設定1500200")
  0()



EVENT   7
 PAGE   1
  108("明かり設定6500200")
  0()



EVENT   8
 PAGE   1
  108("明かり設定6500200")
  0()



EVENT   9
 PAGE   1
  108("明かり設定5320100")
  0()



EVENT   10
 PAGE   1
  108("明かり設定3300300")
  0()



EVENT   11
 PAGE   1
  108("明かり設定3300300")
  0()



EVENT   12
 PAGE   1
  108("明かり設定3300300")
  0()



EVENT   13
 PAGE   1
  108("明かり設定3300300")
  0()



EVENT   14
 PAGE   1
  108("明かり設定3300300")
  0()



EVENT   15
 PAGE   1
  108("明かり設定3300300")
  0()



EVENT   16
 PAGE   1
  108("明かり設定3300300")
  0()



EVENT   17
 PAGE   1
  108("明かり設定3300300")
  0()



EVENT   18
 PAGE   1
  223(bytes(0x04,0x08,0x75,0x3a,0x09,0x54,0x6f,0x6e,0x65,0x25,0x00,0x00,0x00,0x00,0x00,0x00,0x51,0xc0,0x00,0x00,0x00,0x00,0x00,0x00,0x51,0xc0,0x00,0x00,0x00,0x00,0x00,0x00,0x00,0x00,0x00,0x00,0x00,0x00,0x00,0x00,0x51,0x40),1,true)
  ChangeSelfSwitch("A",0)
  0()
 PAGE   2
  // condition: self-switch A is ON
  0()



EVENT   19
 PAGE   1
  108("明かり設定2160400")
  0()



EVENT   2
 PAGE   1
  250(bytes(0x04,0x08,0x6f,0x3a,0x0c,0x52,0x50,0x47,0x3a,0x3a,0x53,0x45,0x08,0x3a,0x0a,0x40,0x6e,0x61,0x6d,0x65,0x49,0x22,0x09,0x4d,0x6f,0x76,0x65,0x06,0x3a,0x06,0x45,0x54,0x3a,0x0b,0x40,0x70,0x69,0x74,0x63,0x68,0x69,0x69,0x3a,0x0c,0x40,0x76,0x6f,0x6c,0x75,0x6d,0x65,0x69,0x55))
  TeleportPlayer(0,361,48,12,4,0)
  0()



EVENT   3
 PAGE   1
  250(bytes(0x04,0x08,0x6f,0x3a,0x0c,0x52,0x50,0x47,0x3a,0x3a,0x53,0x45,0x08,0x3a,0x0a,0x40,0x6e,0x61,0x6d,0x65,0x49,0x22,0x09,0x4d,0x6f,0x76,0x65,0x06,0x3a,0x06,0x45,0x54,0x3a,0x0b,0x40,0x70,0x69,0x74,0x63,0x68,0x69,0x69,0x3a,0x0c,0x40,0x76,0x6f,0x6c,0x75,0x6d,0x65,0x69,0x55))
  TeleportPlayer(0,361,48,12,4,0)
  0()



EVENT   21
 PAGE   1
  ShowMessageFace("",0,0,2,1)
  ShowMessage("The party uses the circle of healing...")
  250(bytes(0x04,0x08,0x6f,0x3a,0x0c,0x52,0x50,0x47,0x3a,0x3a,0x53,0x45,0x08,0x3a,0x0a,0x40,0x6e,0x61,0x6d,0x65,0x49,0x22,0x0a,0x48,0x65,0x61,0x6c,0x37,0x06,0x3a,0x06,0x45,0x54,0x3a,0x0b,0x40,0x70,0x69,0x74,0x63,0x68,0x69,0x69,0x3a,0x0c,0x40,0x76,0x6f,0x6c,0x75,0x6d,0x65,0x69,0x55))
  224(bytes(0x04,0x08,0x75,0x3a,0x0a,0x43,0x6f,0x6c,0x6f,0x72,0x25,0x00,0x00,0x00,0x00,0x00,0xe0,0x6f,0x40,0x00,0x00,0x00,0x00,0x00,0xe0,0x6f,0x40,0x00,0x00,0x00,0x00,0x00,0xe0,0x6f,0x40,0x00,0x00,0x00,0x00,0x00,0xe0,0x6f,0x40),30,true)
  314(0,0)
  ShowMessageFace("",0,0,2,2)
  ShowMessage("The party's HP and MP have been fully recovered!")
  0()



EVENT   22
 PAGE   1
  250(bytes(0x04,0x08,0x6f,0x3a,0x0c,0x52,0x50,0x47,0x3a,0x3a,0x53,0x45,0x08,0x3a,0x0a,0x40,0x6e,0x61,0x6d,0x65,0x49,0x22,0x0a,0x49,0x74,0x65,0x6d,0x31,0x06,0x3a,0x06,0x45,0x54,0x3a,0x0b,0x40,0x70,0x69,0x74,0x63,0x68,0x69,0x69,0x3a,0x0c,0x40,0x76,0x6f,0x6c,0x75,0x6d,0x65,0x69,0x55))
  ChangeSelfSwitch("A",0)
  ChangeInventory_Item(5,0,0,1)
  0()
 PAGE   2
  // condition: self-switch A is ON
  0()



EVENT   20
 PAGE   1
  // condition: switch 2091 is ON
  241(bytes(0x04,0x08,0x6f,0x3a,0x0d,0x52,0x50,0x47,0x3a,0x3a,0x42,0x47,0x4d,0x08,0x3a,0x0a,0x40,0x6e,0x61,0x6d,0x65,0x49,0x22,0x0a,0x62,0x6f,0x73,0x73,0x30,0x06,0x3a,0x06,0x45,0x54,0x3a,0x0c,0x40,0x76,0x6f,0x6c,0x75,0x6d,0x65,0x69,0x69,0x3a,0x0b,0x40,0x70,0x69,0x74,0x63,0x68,0x69,0x69))
  PictureDisplay(5,"80_lily_st11",0,0,0,0,100,100,0,0)
  PictureMove(5,null,0,0,0,0,100,100,255,0,30,true)
  ShowMessageFace("lily_fc1",0,0,2,1)
  ShowMessage("\\n<Lily>こんなところまで、私を倒しに来るなんて…… ルシアあたりに、そそのかされたのかしら？")
  PictureDisplay(5,"80_lily_st13",0,0,0,0,100,100,255,0)
  ShowMessageFace("lily_fc1",2,0,2,2)
  ShowMessage("\\n<Lily>ルシアの主張も、正しいように思えるわよね。 蝕魔導の術を広めたら、かえって世界が混乱すると……")
  ShowMessageFace("lily_fc1",2,0,2,3)
  ShowMessage("\\n<Lily>でも、蝕魔導の術を秘めたものにしておくという事は…… それを、一部の者のみが管理するという事になるのよねぇ。")
  ShowMessageFace("lily_fc1",2,0,2,4)
  ShowMessage("\\n<Lily>それこそが、一番危険な状態だと思わない？")
  If(0,6,0)
   ShowMessageFace("sonia_fc2",2,0,2,5)
   ShowMessage("\\n<Sonya>確かに、そうかもしれないけど……")
   0()
  Else()
   ShowMessageFace("ruka_fc1",0,0,2,6)
   ShowMessage("\\n<Luka>確かに、そうかもしれないけど……")
   0()
  EndIf()
  ShowMessageFace("lily_fc1",2,0,2,7)
  ShowMessage("\\n<Lily>一部の者のみが力を独占する…… それは間違いなく、暴虐と支配を生み出すわ。")
  ShowMessageFace("lily_fc1",2,0,2,8)
  ShowMessage("\\n<Lily>そうなると、嘆きの声が止まらなくなる…… ほら、今でも聞こえるでしょう……助けを求める声が……")
  ShowMessageFace("lily_fc1",2,0,2,9)
  ShowMessage("\\n<Lily>私はただ、この声を止めたいだけなのよ！ あなた達にも聞こえるはずよ、虐げられた者達の声が！")
  ShowMessageFace("ruka_fc1",0,0,2,10)
  ShowMessage("\\n<Luka>……………………")
  ShowMessageFace("lily_fc1",2,0,2,11)
  ShowMessage("\\n<Lily>取引は、まだ有効よ。 今からでもルシアを倒せば、仲間になってあげる。")
  ShowMessageFace("lily_fc1",2,0,2,12)
  ShowMessage("\\n<Lily>それでも……私を倒すというの？ 虐げられた者達の声を踏みにじってまで、私を討つの？")
  ShowChoices(strings("リリィと戦う","取引通り、ルシアと戦う"),2)
  IfPlayerPicksChoice(0,null)
   ShowMessageFace("ruka_fc1",0,0,2,13)
   ShowMessage("\\n<Luka>確かに、助けを求める泣き声が聞こえるよ…… リリィ、君の声が。")
   ShowMessageFace("lily_fc1",2,0,2,14)
   ShowMessage("\\n<Lily>私が……？")
   ShowMessageFace("ruka_fc1",0,0,2,15)
   ShowMessage("\\n<Luka>本当に助けを求めているのは、君なんだ。 その声は、たぶん君自身の中から発せられたものなんだよ。")
   If(0,4,0)
    ShowMessageFace("alice_fc5",0,0,2,16)
    ShowMessage("\\n<Alice>貴様の中には、かつて虐殺を導いた罪悪感が残っている。 弱者救済の使命感で、それを上書きしようとしているがな……")
    ShowMessageFace("alice_fc5",3,0,2,17)
    ShowMessage("\\n<Alice>壊れかけの心を蝕魔導で押し隠し、使命感で塗り込め…… 自分の悲鳴さえ、他人のものとして転嫁して……")
    ShowMessageFace("alice_fc5",2,0,2,18)
    ShowMessage("\\n<Alice>貴様、いずれは必ず壊れるぞ。 そうなる前に、己の心と向き合わなければならん。")
    0()
   EndIf()
   If(0,5,0)
    ShowMessageFace("iriasu_fc4",7,0,2,19)
    ShowMessage("\\n<Ilias>あなたの心は、壊れる寸前のようですね。")
    ShowMessageFace("iriasu_fc4",7,0,2,20)
    ShowMessage("\\n<Ilias>後悔の念も罪悪感も、全て使命感で上書きしても…… どうしたところで、その泣き声は消える事はありません。")
    ShowMessageFace("iriasu_fc4",7,0,2,21)
    ShowMessage("\\n<Ilias>他者を救う前に、まず自分自身を救うのですね。 心の悲鳴に、素直に向き合うのです。")
    0()
   EndIf()
   ShowMessageFace("lily_fc1",2,0,2,22)
   ShowMessage("\\n<Lily>違うわ……私は、虐げられた者を救うために…… 弱き者の泣き声を消すために……！")
   ShowMessageFace("lily_fc1",2,0,2,23)
   ShowMessage("\\n<Lily>だって、そうしないと消えないでしょう……！ この泣き声が……泣き声が……泣き声が……")
   ShowMessageFace("ruka_fc1",0,0,2,24)
   ShowMessage("\\n<Luka>蝕魔導の力が君を救った……それは確かだろうね。 でも今は、その力が君を壊しかけてる。")
   ShowMessageFace("ruka_fc1",0,0,2,25)
   ShowMessage("\\n<Luka>その力と決別させるために、僕は剣を振るう！ 行くぞ、リリィ！")
   ShowMessageFace("lily_fc1",2,0,2,26)
   ShowMessage("\\n<Lily>あなたも、私達を虐げようというのね…… なら、あの男達と同じように……！")
   PictureDisplay(5,"80_lily_st04",0,0,0,0,100,100,255,0)
   ShowMessageFace("lily_fc1",6,0,2,27)
   ShowMessage("\\n<Lily>蹂躙し、陵辱し、報いを受けさせるわ！ この触手に貪られ、惨めに尽き果てなさい……！！")
   If(4,163,0)
    ShowMessageFace("lily_fc1",5,0,2,28)
    ShowMessage("\\n<Lily'>……………………")
    ShowMessageFace("lily_fc1",6,0,2,29)
    ShowMessage("\\n<Lily>ああ、もう一人の私が見える…… やっぱり私も助けを求めて……")
    ShowMessageFace("lily_fc1",3,0,2,30)
    ShowMessage("\\n<Lily'>いいえ、救いに来たのよ。 私が、私自身をね……")
    ShowMessageFace("lily_fc1",6,0,2,31)
    ShowMessage("\\n<Lily>私自身の声が聞こえる…… 私に、救いを求める声を……")
    ShowMessageFace("lily_fc1",4,0,2,32)
    ShowMessage("\\n<Lily'>……まともに話もできないみたいね。 いいわ、私が私を救ってあげる……")
    0()
   EndIf()
   PictureClear(5)
   SetBattleBGM(bytes(0x04,0x08,0x6f,0x3a,0x0d,0x52,0x50,0x47,0x3a,0x3a,0x42,0x47,0x4d,0x08,0x3a,0x0a,0x40,0x6e,0x61,0x6d,0x65,0x49,0x22,0x0a,0x62,0x6f,0x73,0x73,0x31,0x06,0x3a,0x06,0x45,0x54,0x3a,0x0c,0x40,0x76,0x6f,0x6c,0x75,0x6d,0x65,0x69,0x69,0x3a,0x0b,0x40,0x70,0x69,0x74,0x63,0x68,0x69,0x69))
   ChangeSwitch(22,22,0)
   Battle(0,270,false,false)
   ChangeSwitch(22,22,1)
   241(bytes(0x04,0x08,0x6f,0x3a,0x0d,0x52,0x50,0x47,0x3a,0x3a,0x42,0x47,0x4d,0x08,0x3a,0x0a,0x40,0x6e,0x61,0x6d,0x65,0x49,0x22,0x0a,0x6b,0x69,0x6b,0x69,0x32,0x06,0x3a,0x06,0x45,0x54,0x3a,0x0c,0x40,0x76,0x6f,0x6c,0x75,0x6d,0x65,0x69,0x69,0x3a,0x0b,0x40,0x70,0x69,0x74,0x63,0x68,0x69,0x69))
   SetBattleBGM(bytes(0x04,0x08,0x6f,0x3a,0x0d,0x52,0x50,0x47,0x3a,0x3a,0x42,0x47,0x4d,0x08,0x3a,0x0a,0x40,0x6e,0x61,0x6d,0x65,0x49,0x22,0x0b,0x62,0x61,0x74,0x74,0x6c,0x65,0x06,0x3a,0x06,0x45,0x54,0x3a,0x0c,0x40,0x76,0x6f,0x6c,0x75,0x6d,0x65,0x69,0x69,0x3a,0x0b,0x40,0x70,0x69,0x74,0x63,0x68,0x69,0x69))
   PictureDisplay(5,"80_lily_st13",0,0,0,0,100,100,0,0)
   PictureMove(5,null,0,0,0,0,100,100,255,0,30,true)
   ShowMessageFace("lily_fc1",2,0,2,33)
   ShowMessage("\\n<Lily>結局、私は踏みにじられるのね……")
   ChangeSwitch(2096,2096,0)
   250(bytes(0x04,0x08,0x6f,0x3a,0x0c,0x52,0x50,0x47,0x3a,0x3a,0x53,0x45,0x08,0x3a,0x0a,0x40,0x6e,0x61,0x6d,0x65,0x49,0x22,0x0d,0x6d,0x6f,0x6e,0x5f,0x64,0x6f,0x77,0x6e,0x06,0x3a,0x06,0x45,0x54,0x3a,0x0b,0x40,0x70,0x69,0x74,0x63,0x68,0x69,0x69,0x3a,0x0c,0x40,0x76,0x6f,0x6c,0x75,0x6d,0x65,0x69,0x69))
   PictureClear(5)
   ChangeVariable(1029,1029,0,0,5)
   ShowMessageFace("",0,0,2,34)
   ShowMessage("リリィは気を失ってしまった……")
   If(0,4,0)
    ShowMessageFace("alice_fc5",0,0,2,35)
    ShowMessage("\\n<Alice>これだけ消耗させれば、当分蝕魔導は使えまい。 ルシアとの取引は、これで成立だな……")
    0()
   EndIf()
   If(0,5,0)
    ShowMessageFace("iriasu_fc4",0,0,2,36)
    ShowMessage("\\n<Ilias>これだけ消耗させれば、当分は蝕魔導の力が使えませんね。 悪しき野望を打ち砕くことができ、幸いでした。")
    0()
   EndIf()
   If(0,6,0)
    ShowMessageFace("sonia_fc2",2,0,2,37)
    ShowMessage("\\n<Sonya>いろいろ難しかったけど、これで良かったよね……")
    0()
   EndIf()
   ShowMessageFace("ruka_fc1",0,0,2,38)
   ShowMessage("\\n<Luka>リリィは、きっと強い人だから…… 蝕魔導から解き放たれて、自分の心と向き合うと信じるよ。")
   ShowMessageFace("ruka_fc1",0,0,2,39)
   ShowMessage("\\n<Luka>さあ、ルシアさんのところに報告に行こう！")
   241(bytes(0x04,0x08,0x6f,0x3a,0x0d,0x52,0x50,0x47,0x3a,0x3a,0x42,0x47,0x4d,0x08,0x3a,0x0a,0x40,0x6e,0x61,0x6d,0x65,0x49,0x22,0x12,0x64,0x75,0x6e,0x67,0x65,0x6f,0x6e,0x5f,0x6d,0x61,0x64,0x6f,0x75,0x06,0x3a,0x06,0x45,0x54,0x3a,0x0c,0x40,0x76,0x6f,0x6c,0x75,0x6d,0x65,0x69,0x69,0x3a,0x0b,0x40,0x70,0x69,0x74,0x63,0x68,0x69,0x69))
   EndEventProcessing()
   0()
  IfPlayerPicksChoice(1,null)
   PictureDisplay(5,"80_lily_st11",0,0,0,0,100,100,255,0)
   ChangeSwitch(2094,2094,0)
   ShowMessageFace("lily_fc1",0,0,2,40)
   ShowMessage("\\n<Lily>考え直してくれたのね。 やはりあなたにも聞こえるでしょう、この泣き声が……")
   ShowMessageFace("lily_fc1",0,0,2,41)
   ShowMessage("\\n<Lily>それじゃあ、待っているわよ。 あなた達がルシアを倒すのを……")
   PictureClear(5)
   241(bytes(0x04,0x08,0x6f,0x3a,0x0d,0x52,0x50,0x47,0x3a,0x3a,0x42,0x47,0x4d,0x08,0x3a,0x0a,0x40,0x6e,0x61,0x6d,0x65,0x49,0x22,0x12,0x64,0x75,0x6e,0x67,0x65,0x6f,0x6e,0x5f,0x6d,0x61,0x64,0x6f,0x75,0x06,0x3a,0x06,0x45,0x54,0x3a,0x0c,0x40,0x76,0x6f,0x6c,0x75,0x6d,0x65,0x69,0x69,0x3a,0x0b,0x40,0x70,0x69,0x74,0x63,0x68,0x69,0x69))
   If(0,2095,0)
    355("gain_medal(2008)")
    0()
   EndIf()
   EndEventProcessing()
   0()
  404()
  0()
 PAGE   2
  // condition: variable 1029 >= 5
  0()
